(module SOIC-8_150mil_Pitch1.27mm (layer F.Cu) (tedit 59FC00B3)
  (descr http://ww1.microchip.com/downloads/en/DeviceDoc/8L_SOIC_Plastic_Small_Outline_3_9_OA_C04-057D-OA.pdf)
  (tags "SOIC-8 150mil 3.9mm")
  (fp_text reference REF** (at 0 -3.1) (layer F.SilkS)
    (effects (font (size 1 1) (thickness 0.15)))
  )
  (fp_text value SOIC-8_150mil_Pitch1.27mm (at 0 3.3) (layer F.Fab)
    (effects (font (size 1 1) (thickness 0.15)))
  )
  (fp_line (start -4.3 -2.9) (end -4.3 2.9) (layer F.CrtYd) (width 0.1))
  (fp_line (start -4.3 2.9) (end 4.3 2.9) (layer F.CrtYd) (width 0.1))
  (fp_line (start 4.3 2.9) (end 4.3 -2.9) (layer F.CrtYd) (width 0.1))
  (fp_line (start 4.3 -2.9) (end -4.3 -2.9) (layer F.CrtYd) (width 0.1))
  (fp_line (start -2.4 -2.45) (end -4.2 -2.45) (layer F.SilkS) (width 0.1))
  (fp_line (start -1.95 -2.45) (end -1.95 2.45) (layer F.Fab) (width 0.1))
  (fp_line (start -1.95 2.45) (end 1.95 2.45) (layer F.Fab) (width 0.1))
  (fp_line (start 1.95 2.45) (end 1.95 -2.45) (layer F.Fab) (width 0.1))
  (fp_line (start -1.95 -2.45) (end 1.95 -2.45) (layer F.Fab) (width 0.1))
  (pad 1 smd rect (at -2.7 -1.905) (size 1.7 0.6) (layers F.Cu F.Paste F.Mask))
  (pad 2 smd rect (at -2.7 -0.635) (size 1.7 0.6) (layers F.Cu F.Paste F.Mask))
  (pad 3 smd rect (at -2.7 0.635) (size 1.7 0.6) (layers F.Cu F.Paste F.Mask))
  (pad 4 smd rect (at -2.7 1.905) (size 1.7 0.6) (layers F.Cu F.Paste F.Mask))
  (pad 5 smd rect (at 2.7 1.905) (size 1.7 0.6) (layers F.Cu F.Paste F.Mask))
  (pad 6 smd rect (at 2.7 0.635) (size 1.7 0.6) (layers F.Cu F.Paste F.Mask))
  (pad 7 smd rect (at 2.7 -0.635) (size 1.7 0.6) (layers F.Cu F.Paste F.Mask))
  (pad 8 smd rect (at 2.7 -1.905) (size 1.7 0.6) (layers F.Cu F.Paste F.Mask))
  (model ${KISYS3DMOD}/Housings_SOIC.3dshapes/SOIC-8_3.9x4.9mm_Pitch1.27mm.wrl
    (at (xyz 0 0 0))
    (scale (xyz 1 1 1))
    (rotate (xyz 0 0 0))
  )
)
