(module Battery_Clip_16mm-19mm (layer F.Cu) (tedit 59FF51B6)
  (fp_text reference REF** (at 0 -8.5) (layer F.SilkS)
    (effects (font (size 1 1) (thickness 0.15)))
  )
  (fp_text value Battery_Clip_16mm-19mm (at 0 6.5) (layer F.Fab)
    (effects (font (size 1 1) (thickness 0.15)))
  )
  (fp_line (start 4.445 -7.11) (end -4.445 -7.11) (layer F.Fab) (width 0.1))
  (fp_line (start 5.265 5.59) (end 5.265 -3.81) (layer F.Fab) (width 0.1))
  (fp_line (start -5.265 -3.81) (end -5.265 5.565) (layer F.Fab) (width 0.1))
  (fp_line (start 4.445 -3.81) (end -4.445 -3.81) (layer F.Fab) (width 0.1))
  (fp_line (start 2.375 -7.41) (end 1.2 -5.83) (layer F.Fab) (width 0.1))
  (fp_line (start 1.2 -5.83) (end -1.2 -5.83) (layer F.Fab) (width 0.1))
  (fp_line (start -1.2 -5.83) (end -2.375 -7.41) (layer F.Fab) (width 0.1))
  (fp_line (start -4.445 -3.81) (end -5.565 -3.81) (layer F.Fab) (width 0.1))
  (fp_line (start 5.565 -3.81) (end 4.445 -3.81) (layer F.Fab) (width 0.1))
  (fp_line (start 5.565 5.59) (end 5.565 -3.81) (layer F.Fab) (width 0.1))
  (fp_line (start 4.445 -3.81) (end 4.445 -7.41) (layer F.Fab) (width 0.1))
  (fp_line (start 4.445 -7.41) (end -4.445 -7.41) (layer F.Fab) (width 0.1))
  (fp_line (start -4.445 -7.41) (end -4.445 -3.81) (layer F.Fab) (width 0.1))
  (fp_line (start -5.565 -3.81) (end -5.565 5.59) (layer F.Fab) (width 0.1))
  (fp_line (start -5.565 5.59) (end 5.565 5.59) (layer F.Fab) (width 0.1))
  (pad 1 thru_hole circle (at 0 -3.81) (size 2.19 2.19) (drill 1.83) (layers *.Cu *.Mask))
  (pad 1 thru_hole circle (at -2.54 3.81) (size 2.19 2.19) (drill 1.83) (layers *.Cu *.Mask))
  (pad 1 thru_hole circle (at 2.54 3.81) (size 2.19 2.19) (drill 1.83) (layers *.Cu *.Mask))
)
