(module 0.3048_tie (layer F.Cu) (tedit 5CBD5894)
  (attr virtual)
  (fp_text reference REF** (at 0 1.27) (layer F.SilkS)
    (effects (font (size 1 1) (thickness 0.15)))
  )
  (fp_text value 0.3048_tie (at 0 -1.27) (layer F.Fab)
    (effects (font (size 1 1) (thickness 0.15)))
  )
  (pad 1 smd circle (at -0.25 0) (size 0.3048 0.3048) (layers F.Cu)
    (zone_connect 2))
  (pad 2 smd circle (at 0.25 0) (size 0.3048 0.3048) (layers F.Cu)
    (zone_connect 2))
  (pad 1 smd rect (at -0.125 0) (size 0.25 0.3048) (layers F.Cu F.Paste F.Mask))
  (pad 2 smd rect (at 0.125 0) (size 0.25 0.3048) (layers F.Cu F.Paste F.Mask))
)
