(module R1206H (layer F.Cu) (tedit 5BFCDEA7)
  (fp_text reference R** (at 0 1.65) (layer F.SilkS)
    (effects (font (size 1 1) (thickness 0.15)))
  )
  (fp_text value R1206 (at 0 -1.55) (layer F.Fab)
    (effects (font (size 1 1) (thickness 0.15)))
  )
  (fp_text user %R (at 0 0) (layer F.Fab)
    (effects (font (size 0.9 0.8) (thickness 0.12)))
  )
  (fp_line (start -1.5 -0.75) (end -1.5 0.75) (layer F.Fab) (width 0.1))
  (fp_line (start -1.5 0.75) (end 1.5 0.75) (layer F.Fab) (width 0.1))
  (fp_line (start 1.5 0.75) (end 1.5 -0.75) (layer F.Fab) (width 0.1))
  (fp_line (start 1.5 -0.75) (end -1.5 -0.75) (layer F.Fab) (width 0.1))
  (fp_line (start -2.45 -1.05) (end -2.45 1.05) (layer F.CrtYd) (width 0.05))
  (fp_line (start -2.45 1.05) (end 2.45 1.05) (layer F.CrtYd) (width 0.05))
  (fp_line (start 2.45 1.05) (end 2.45 -1.05) (layer F.CrtYd) (width 0.05))
  (fp_line (start 2.45 -1.05) (end -2.45 -1.05) (layer F.CrtYd) (width 0.05))
  (fp_line (start -1.2 -0.9) (end 1.2 -0.9) (layer F.SilkS) (width 0.12))
  (fp_line (start 1.2 0.9) (end -1.2 0.9) (layer F.SilkS) (width 0.12))
  (pad 1 smd rect (at -1.7 0) (size 1.2 1.6) (layers F.Cu F.Paste F.Mask))
  (pad 2 smd rect (at 1.7 0) (size 1.2 1.6) (layers F.Cu F.Paste F.Mask))
  (model ${KISYS3DMOD}/Resistor_SMD.3dshapes/R_1206_3216Metric.wrl
    (at (xyz 0 0 0))
    (scale (xyz 1 1 1))
    (rotate (xyz 0 0 0))
  )
)
