(module TVS0603H (layer F.Cu) (tedit 5E3C9C27)
  (fp_text reference TVS** (at 0 1.3) (layer F.SilkS)
    (effects (font (size 1 1) (thickness 0.15)))
  )
  (fp_text value TVS0603 (at 0 -1.1) (layer F.Fab)
    (effects (font (size 1 1) (thickness 0.15)))
  )
  (fp_line (start -1.6 -0.8) (end -1.6 0.8) (layer F.CrtYd) (width 0.15))
  (fp_line (start -1.6 0.8) (end 1.6 0.8) (layer F.CrtYd) (width 0.15))
  (fp_line (start 1.6 0.8) (end 1.6 -0.8) (layer F.CrtYd) (width 0.15))
  (fp_line (start 1.6 -0.8) (end -1.6 -0.8) (layer F.CrtYd) (width 0.15))
  (fp_line (start -0.4 -0.4) (end 0.4 -0.4) (layer F.SilkS) (width 0.15))
  (fp_line (start 0.4 -0.4) (end 0.4 0.4) (layer F.SilkS) (width 0.15))
  (fp_line (start 0.4 0.4) (end -0.4 0.4) (layer F.SilkS) (width 0.15))
  (fp_line (start -0.4 0.4) (end -0.4 -0.4) (layer F.SilkS) (width 0.15))
  (fp_line (start -0.8 -0.4) (end -0.8 0.4) (layer F.Fab) (width 0.12))
  (fp_line (start -0.8 0.4) (end 0.8 0.4) (layer F.Fab) (width 0.12))
  (fp_line (start 0.8 0.4) (end 0.8 -0.4) (layer F.Fab) (width 0.12))
  (fp_line (start 0.8 -0.4) (end -0.8 -0.4) (layer F.Fab) (width 0.12))
  (fp_text user %R (at 0 0) (layer F.Fab)
    (effects (font (size 0.3 0.3) (thickness 0.075)))
  )
  (pad 1 smd rect (at -0.8 0) (size 1.1 1) (layers F.Cu F.Paste F.Mask))
  (pad 2 smd rect (at 0.8 0) (size 1.1 1) (layers F.Cu F.Paste F.Mask))
  (model ${KISYS3DMOD}/Diode_SMD.3dshapes/D_0603_1608Metric.wrl
    (at (xyz 0 0 0))
    (scale (xyz 1 1 1))
    (rotate (xyz 0 0 0))
  )
)
